[

    {
      "name": "iPhone 11 128GB",
      "price": "28000 грн",
      "imageSrc": "img/11-128.png",
      "article": "11111",
      "color": "black"
    },
    {
      "name": "iPhone 12 gold",
      "price": "29000 грн",
      "imageSrc": "img/12-gold.jpg",
      "article": "22222",
      "color": "gold"
    },
    {
      "name": "iPhone 12 pacific",
      "price": "28500 грн",
      "imageSrc": "img/12-pacific.jpg",
      "article": "33333",
      "color": "pacific"
    },
    {
      "name": "iPhone 12 pro",
      "price": "34000 грн",
      "imageSrc": "img/12-pro.jpg",
      "article": "44444",
      "color": "black"
    },
    {
      "name": "iPhone 12 pro max",
      "price": "39000 грн",
      "imageSrc": "img/12-pro-max.jpg",
      "article": "55555",
      "color": "gold"
    },
    {
      "name": "iPhone 12 purple",
      "price": "28000 грн",
      "imageSrc": "img/12-purple.jpg",
      "article": "66666",
      "color": "purple"
    },
    {
      "name": "iPhone 12 purple mini",
      "price": "25000 грн",
      "imageSrc": "img/12-purple-mini.jpg",
      "article": "77777",
      "color": "purple"
    },
    {
      "name": "iPhone 11",
      "price": "28000 грн",
      "imageSrc": "img/iphone11.png",
      "article": "88888",
      "color": "black"
    },
    {
      "name": "iPhone SE",
      "price": "15000 грн",
      "imageSrc": "img/se.jpg",
      "article": "99999",
      "color": "white"
    },
    {
      "name": "iPhone XR",
      "price": "22000 грн",
      "imageSrc": "img/xr.jpg",
      "article": "01111",
      "color": "black"
    }

]